solution for: femtocell_placement
objective: 8
B69=1
B171=1
B255=1
B429=1
B466=1
B614=1
B687=1
B813=1
S0_171=1
S1_171=1
S2_171=1
S3_69=1
S3_171=1
S4_69=1
S4_171=1
S5_69=1
S5_171=1
S6_69=1
S6_171=1
S7_69=1
S7_171=1
S8_69=1
S8_171=1
S9_69=1
S10_69=1
S11_69=1
S12_171=1
S13_69=1
S13_171=1
S14_171=1
S14_255=1
S15_69=1
S15_171=1
S16_69=1
S16_171=1
S17_69=1
S17_171=1
S18_69=1
S18_171=1
S19_69=1
S19_171=1
S20_69=1
S20_171=1
S21_69=1
S22_69=1
S22_466=1
S23_69=1
S23_466=1
S24_69=1
S24_171=1
S25_171=1
S26_171=1
S27_69=1
S27_171=1
S28_69=1
S28_171=1
S29_69=1
S29_171=1
S30_69=1
S30_171=1
S31_69=1
S31_171=1
S32_69=1
S32_171=1
S33_69=1
S33_466=1
S34_69=1
S34_466=1
S35_69=1
S35_171=1
S35_466=1
S36_69=1
S36_171=1
S37_69=1
S37_171=1
S37_255=1
S38_69=1
S38_171=1
S39_69=1
S39_171=1
S39_255=1
S40_69=1
S40_171=1
S40_255=1
S41_69=1
S41_171=1
S42_69=1
S42_171=1
S43_69=1
S43_171=1
S44_69=1
S45_69=1
S45_466=1
S46_69=1
S46_466=1
S47_69=1
S47_466=1
S48_69=1
S48_171=1
S48_255=1
S49_171=1
S49_255=1
S50_69=1
S50_171=1
S50_255=1
S51_69=1
S51_171=1
S51_255=1
S52_69=1
S52_171=1
S52_255=1
S53_69=1
S53_171=1
S53_255=1
S54_69=1
S54_171=1
S55_69=1
S55_171=1
S55_255=1
S56_69=1
S57_69=1
S57_171=1
S58_69=1
S58_466=1
S59_69=1
S60_69=1
S60_171=1
S60_255=1
S61_69=1
S61_171=1
S61_255=1
S62_69=1
S62_171=1
S62_255=1
S63_69=1
S63_171=1
S63_255=1
S64_69=1
S64_171=1
S64_255=1
S65_69=1
S65_171=1
S65_255=1
S66_69=1
S66_171=1
S66_255=1
S67_69=1
S67_171=1
S67_255=1
S68_69=1
S68_171=1
S69_69=1
S70_69=1
S70_171=1
S71_69=1
S72_69=1
S72_171=1
S72_255=1
S73_69=1
S73_171=1
S73_255=1
S74_69=1
S74_171=1
S74_255=1
S75_69=1
S75_171=1
S75_255=1
S76_69=1
S76_171=1
S76_255=1
S77_69=1
S77_171=1
S77_255=1
S78_69=1
S78_171=1
S78_255=1
S79_69=1
S79_171=1
S80_69=1
S80_171=1
S81_69=1
S82_69=1
S83_69=1
S84_69=1
S84_171=1
S84_255=1
S85_171=1
S85_255=1
S86_69=1
S86_171=1
S86_255=1
S87_69=1
S87_171=1
S87_255=1
S88_69=1
S88_171=1
S88_255=1
S89_69=1
S89_171=1
S89_255=1
S90_69=1
S90_255=1
S91_69=1
S91_255=1
S91_429=1
S92_69=1
S92_171=1
S92_255=1
S92_429=1
S93_69=1
S93_171=1
S94_69=1
S94_255=1
S94_429=1
S95_69=1
S96_255=1
S97_69=1
S97_255=1
S98_69=1
S98_171=1
S98_255=1
S99_69=1
S99_255=1
S100_69=1
S100_255=1
S101_69=1
S101_255=1
S102_69=1
S102_255=1
S103_69=1
S103_255=1
S104_69=1
S104_429=1
S105_69=1
S105_429=1
S106_69=1
S106_429=1
S107_69=1
S107_429=1
S108_255=1
S109_171=1
S109_255=1
S110_69=1
S110_171=1
S110_255=1
S111_69=1
S111_171=1
S111_255=1
S112_69=1
S112_255=1
S113_69=1
S113_171=1
S113_255=1
S114_69=1
S114_255=1
S115_69=1
S115_171=1
S115_255=1
S115_429=1
S116_69=1
S116_255=1
S116_429=1
S117_69=1
S117_255=1
S117_429=1
S118_69=1
S118_255=1
S118_429=1
S119_69=1
S119_255=1
S119_429=1
S120_69=1
S120_255=1
S121_69=1
S121_255=1
S122_69=1
S122_255=1
S123_69=1
S123_255=1
S124_69=1
S124_255=1
S125_69=1
S125_255=1
S125_429=1
S126_69=1
S126_255=1
S126_429=1
S127_69=1
S127_255=1
S127_429=1
S128_69=1
S128_255=1
S128_429=1
S129_69=1
S129_255=1
S129_429=1
S130_69=1
S130_429=1
S131_69=1
S131_255=1
S131_429=1
S132_255=1
S133_69=1
S133_255=1
S134_69=1
S134_255=1
S135_69=1
S135_255=1
S136_69=1
S136_255=1
S137_69=1
S137_255=1
S137_429=1
S138_69=1
S138_255=1
S138_429=1
S139_69=1
S139_255=1
S139_429=1
S140_69=1
S140_255=1
S140_429=1
S141_69=1
S141_255=1
S141_429=1
S142_69=1
S142_429=1
S143_69=1
S143_429=1
S144_171=1
S145_171=1
S145_255=1
S146_171=1
S146_255=1
S147_171=1
S148_171=1
S148_255=1
S149_69=1
S149_171=1
S149_255=1
S150_69=1
S150_171=1
S151_69=1
S151_171=1
S152_171=1
S152_466=1
S153_69=1
S153_171=1
S153_466=1
S154_69=1
S154_171=1
S154_466=1
S155_69=1
S155_171=1
S155_466=1
S156_171=1
S156_255=1
S157_171=1
S157_255=1
S158_171=1
S158_255=1
S158_614=1
S159_171=1
S160_171=1
S161_69=1
S161_171=1
S161_255=1
S162_69=1
S162_171=1
S162_255=1
S163_69=1
S163_171=1
S163_255=1
S163_466=1
S164_69=1
S164_171=1
S164_466=1
S165_69=1
S165_171=1
S165_255=1
S165_466=1
S166_69=1
S166_171=1
S166_466=1
S167_69=1
S167_171=1
S167_466=1
S168_171=1
S168_255=1
S169_171=1
S169_255=1
S170_171=1
S170_255=1
S170_614=1
S171_69=1
S171_171=1
S171_255=1
S171_614=1
S172_171=1
S172_255=1
S173_171=1
S173_255=1
S174_69=1
S174_171=1
S174_466=1
S175_69=1
S175_171=1
S175_255=1
S175_466=1
S176_69=1
S176_171=1
S176_466=1
S177_69=1
S177_171=1
S177_466=1
S178_69=1
S178_171=1
S178_255=1
S178_466=1
S179_69=1
S179_466=1
S180_171=1
S180_255=1
S180_614=1
S181_171=1
S181_255=1
S181_614=1
S182_171=1
S182_255=1
S182_614=1
S183_171=1
S183_255=1
S183_614=1
S184_69=1
S184_171=1
S184_255=1
S184_614=1
S185_69=1
S185_171=1
S185_255=1
S186_69=1
S186_171=1
S186_255=1
S186_466=1
S187_69=1
S187_171=1
S187_255=1
S187_466=1
S188_69=1
S188_171=1
S188_255=1
S188_429=1
S188_466=1
S189_69=1
S189_171=1
S189_429=1
S189_466=1
S190_69=1
S190_171=1
S190_255=1
S190_466=1
S191_69=1
S191_171=1
S191_466=1
S192_171=1
S192_255=1
S193_171=1
S193_255=1
S194_171=1
S194_255=1
S194_614=1
S195_69=1
S195_171=1
S195_255=1
S196_69=1
S196_171=1
S196_255=1
S197_69=1
S197_171=1
S197_255=1
S198_69=1
S198_171=1
S198_255=1
S199_69=1
S199_171=1
S199_255=1
S200_69=1
S200_171=1
S200_255=1
S200_466=1
S201_69=1
S201_171=1
S201_255=1
S201_466=1
S202_69=1
S202_171=1
S202_255=1
S202_466=1
S203_69=1
S203_171=1
S203_466=1
S204_171=1
S204_255=1
S205_171=1
S205_255=1
S206_171=1
S206_255=1
S206_614=1
S207_69=1
S207_171=1
S207_255=1
S208_69=1
S208_171=1
S208_255=1
S209_69=1
S209_171=1
S209_255=1
S210_69=1
S210_171=1
S210_255=1
S210_429=1
S211_69=1
S211_171=1
S211_255=1
S211_429=1
S211_466=1
S212_69=1
S212_171=1
S212_255=1
S212_466=1
S213_69=1
S213_171=1
S213_255=1
S213_429=1
S213_466=1
S214_69=1
S214_255=1
S214_466=1
S215_69=1
S215_171=1
S215_466=1
S216_171=1
S216_255=1
S217_171=1
S217_255=1
S218_171=1
S218_255=1
S219_69=1
S219_171=1
S219_255=1
S220_69=1
S220_171=1
S220_255=1
S221_69=1
S221_171=1
S221_255=1
S221_429=1
S222_69=1
S222_171=1
S222_255=1
S223_69=1
S223_171=1
S223_255=1
S224_69=1
S224_171=1
S224_255=1
S224_429=1
S225_69=1
S225_171=1
S225_255=1
S225_429=1
S226_69=1
S226_171=1
S226_255=1
S226_429=1
S227_69=1
S227_429=1
S227_466=1
S228_171=1
S228_255=1
S229_171=1
S229_255=1
S230_69=1
S230_171=1
S230_255=1
S231_69=1
S231_171=1
S231_255=1
S232_171=1
S232_255=1
S233_69=1
S233_171=1
S233_255=1
S234_69=1
S234_171=1
S234_255=1
S234_429=1
S235_69=1
S235_171=1
S235_255=1
S235_429=1
S236_69=1
S236_171=1
S236_255=1
S236_429=1
S237_69=1
S237_171=1
S237_255=1
S237_429=1
S238_69=1
S238_171=1
S238_255=1
S238_429=1
S239_69=1
S239_255=1
S239_429=1
S240_171=1
S240_255=1
S241_171=1
S241_255=1
S242_171=1
S242_255=1
S242_687=1
S243_171=1
S243_255=1
S243_687=1
S244_69=1
S244_171=1
S244_255=1
S244_429=1
S245_69=1
S245_171=1
S245_255=1
S245_429=1
S246_69=1
S246_171=1
S246_255=1
S246_429=1
S247_69=1
S247_171=1
S247_255=1
S247_429=1
S248_69=1
S248_171=1
S248_255=1
S248_429=1
S249_69=1
S249_171=1
S249_255=1
S249_429=1
S250_69=1
S250_171=1
S250_255=1
S250_429=1
S251_69=1
S251_255=1
S251_429=1
S252_171=1
S252_255=1
S253_171=1
S253_255=1
S253_687=1
S254_171=1
S254_255=1
S254_687=1
S255_171=1
S255_255=1
S255_429=1
S255_687=1
S256_69=1
S256_171=1
S256_255=1
S256_429=1
S256_687=1
S257_69=1
S257_171=1
S257_255=1
S257_429=1
S258_69=1
S258_171=1
S258_255=1
S258_429=1
S259_69=1
S259_171=1
S259_255=1
S259_429=1
S260_69=1
S260_171=1
S260_255=1
S260_429=1
S261_69=1
S261_255=1
S261_429=1
S262_69=1
S262_255=1
S262_429=1
S263_69=1
S263_255=1
S263_429=1
S264_255=1
S265_171=1
S265_255=1
S266_171=1
S266_255=1
S266_687=1
S267_255=1
S267_429=1
S267_687=1
S268_255=1
S268_429=1
S269_69=1
S269_171=1
S269_255=1
S269_429=1
S270_69=1
S270_255=1
S270_429=1
S271_69=1
S271_255=1
S271_429=1
S272_69=1
S272_255=1
S272_429=1
S273_69=1
S273_255=1
S273_429=1
S274_255=1
S274_429=1
S275_69=1
S275_255=1
S275_429=1
S276_171=1
S276_255=1
S277_171=1
S277_255=1
S278_171=1
S278_255=1
S279_171=1
S279_255=1
S279_687=1
S280_69=1
S280_171=1
S280_255=1
S280_429=1
S281_255=1
S281_429=1
S282_69=1
S282_171=1
S282_255=1
S282_429=1
S283_69=1
S283_171=1
S283_255=1
S283_429=1
S284_171=1
S284_255=1
S284_429=1
S285_69=1
S285_255=1
S285_429=1
S286_69=1
S286_255=1
S286_429=1
S287_255=1
S287_429=1
S288_171=1
S288_614=1
S289_171=1
S289_614=1
S290_171=1
S290_466=1
S290_614=1
S291_171=1
S291_614=1
S292_171=1
S293_171=1
S293_614=1
S294_171=1
S294_429=1
S294_466=1
S295_171=1
S295_466=1
S296_171=1
S296_429=1
S296_466=1
S297_171=1
S297_466=1
S298_466=1
S299_171=1
S299_466=1
S300_171=1
S300_614=1
S301_171=1
S301_614=1
S302_171=1
S302_614=1
S303_171=1
S303_614=1
S304_171=1
S304_466=1
S304_614=1
S305_171=1
S306_171=1
S306_466=1
S307_171=1
S307_466=1
S308_466=1
S309_171=1
S309_466=1
S310_466=1
S311_466=1
S312_171=1
S312_614=1
S313_171=1
S313_614=1
S314_171=1
S314_614=1
S315_171=1
S315_466=1
S315_614=1
S316_171=1
S316_466=1
S316_614=1
S317_171=1
S317_466=1
S317_614=1
S318_69=1
S318_171=1
S318_429=1
S318_466=1
S319_171=1
S319_466=1
S320_69=1
S320_171=1
S320_466=1
S321_69=1
S321_171=1
S321_466=1
S322_69=1
S322_466=1
S323_429=1
S323_466=1
S324_171=1
S324_255=1
S324_614=1
S325_171=1
S325_255=1
S325_614=1
S326_171=1
S326_614=1
S327_171=1
S327_614=1
S328_171=1
S328_255=1
S328_429=1
S328_466=1
S328_614=1
S329_69=1
S329_171=1
S329_255=1
S329_429=1
S329_466=1
S329_614=1
S330_69=1
S330_171=1
S330_429=1
S330_466=1
S331_69=1
S331_171=1
S331_429=1
S331_466=1
S332_69=1
S332_171=1
S332_429=1
S332_466=1
S333_69=1
S333_171=1
S333_429=1
S333_466=1
S334_69=1
S334_429=1
S334_466=1
S335_69=1
S335_171=1
S335_466=1
S336_171=1
S336_255=1
S336_614=1
S337_171=1
S337_255=1
S337_614=1
S338_171=1
S338_255=1
S338_614=1
S339_171=1
S339_429=1
S339_614=1
S340_171=1
S340_255=1
S340_429=1
S340_466=1
S340_614=1
S341_171=1
S341_255=1
S341_429=1
S341_466=1
S341_614=1
S342_69=1
S342_171=1
S342_255=1
S342_429=1
S342_466=1
S343_69=1
S343_171=1
S343_429=1
S343_466=1
S344_69=1
S344_171=1
S344_429=1
S344_466=1
S345_69=1
S345_429=1
S345_466=1
S346_69=1
S346_429=1
S346_466=1
S347_69=1
S347_429=1
S347_466=1
S348_171=1
S348_255=1
S348_614=1
S349_171=1
S349_255=1
S349_614=1
S350_171=1
S350_255=1
S350_614=1
S351_171=1
S351_255=1
S351_614=1
S352_171=1
S352_255=1
S352_429=1
S352_614=1
S352_687=1
S353_69=1
S353_171=1
S353_255=1
S353_429=1
S353_614=1
S354_69=1
S354_171=1
S354_255=1
S354_429=1
S354_466=1
S355_69=1
S355_429=1
S355_466=1
S356_69=1
S356_171=1
S356_255=1
S356_429=1
S356_466=1
S357_69=1
S357_171=1
S357_255=1
S357_429=1
S357_466=1
S358_69=1
S358_429=1
S358_466=1
S359_69=1
S359_429=1
S359_466=1
S360_171=1
S360_255=1
S360_429=1
S360_614=1
S361_171=1
S361_255=1
S361_614=1
S361_687=1
S362_171=1
S362_255=1
S362_614=1
S362_687=1
S363_171=1
S363_255=1
S363_466=1
S363_614=1
S363_687=1
S364_171=1
S364_255=1
S364_429=1
S364_466=1
S364_614=1
S364_687=1
S365_69=1
S365_171=1
S365_255=1
S365_429=1
S365_466=1
S366_69=1
S366_171=1
S366_255=1
S366_429=1
S366_466=1
S367_69=1
S367_171=1
S367_255=1
S367_429=1
S367_466=1
S368_69=1
S368_171=1
S368_255=1
S368_429=1
S368_466=1
S369_69=1
S369_429=1
S369_466=1
S369_813=1
S370_69=1
S370_429=1
S370_466=1
S371_69=1
S371_429=1
S371_466=1
S372_171=1
S372_255=1
S372_429=1
S372_614=1
S373_171=1
S373_255=1
S373_429=1
S373_687=1
S374_171=1
S374_255=1
S374_429=1
S374_687=1
S375_171=1
S375_255=1
S375_429=1
S375_614=1
S375_687=1
S376_255=1
S376_429=1
S376_687=1
S377_255=1
S377_429=1
S377_687=1
S378_69=1
S378_255=1
S378_429=1
S378_687=1
S379_69=1
S379_255=1
S379_429=1
S379_813=1
S380_69=1
S380_255=1
S380_429=1
S380_466=1
S380_813=1
S381_69=1
S381_429=1
S381_466=1
S381_813=1
S382_69=1
S382_255=1
S382_429=1
S382_466=1
S382_813=1
S383_69=1
S383_429=1
S383_466=1
S384_171=1
S384_255=1
S384_429=1
S384_687=1
S385_171=1
S385_255=1
S385_687=1
S386_171=1
S386_255=1
S386_687=1
S387_255=1
S387_429=1
S387_687=1
S388_171=1
S388_255=1
S388_429=1
S388_687=1
S389_171=1
S389_255=1
S389_429=1
S389_687=1
S390_171=1
S390_255=1
S390_429=1
S390_466=1
S390_687=1
S391_69=1
S391_255=1
S391_429=1
S391_466=1
S391_687=1
S392_69=1
S392_255=1
S392_429=1
S392_466=1
S393_69=1
S393_255=1
S393_429=1
S393_466=1
S393_813=1
S394_69=1
S394_429=1
S394_813=1
S395_69=1
S395_429=1
S396_255=1
S396_687=1
S397_255=1
S397_429=1
S397_687=1
S398_171=1
S398_255=1
S398_429=1
S398_687=1
S399_255=1
S399_429=1
S399_687=1
S400_171=1
S400_255=1
S400_429=1
S400_687=1
S401_255=1
S401_429=1
S401_687=1
S402_255=1
S402_429=1
S402_687=1
S403_69=1
S403_255=1
S403_429=1
S403_687=1
S404_255=1
S404_429=1
S405_69=1
S405_255=1
S405_429=1
S405_813=1
S406_69=1
S406_429=1
S407_429=1
S408_255=1
S408_429=1
S408_687=1
S409_255=1
S409_687=1
S410_255=1
S410_429=1
S410_687=1
S411_255=1
S411_429=1
S411_687=1
S412_255=1
S412_429=1
S412_687=1
S413_171=1
S413_255=1
S413_429=1
S413_687=1
S414_255=1
S414_429=1
S414_687=1
S415_255=1
S415_429=1
S415_687=1
S416_255=1
S416_429=1
S417_429=1
S418_255=1
S418_429=1
S419_429=1
S420_255=1
S420_429=1
S421_255=1
S421_429=1
S421_687=1
S422_255=1
S422_429=1
S422_687=1
S423_255=1
S423_429=1
S423_687=1
S424_255=1
S424_429=1
S424_687=1
S425_255=1
S425_429=1
S425_687=1
S426_255=1
S426_429=1
S427_255=1
S427_429=1
S428_255=1
S428_429=1
S429_429=1
S430_429=1
S431_429=1
S432_614=1
S433_171=1
S433_614=1
S434_171=1
S434_466=1
S434_614=1
S435_171=1
S435_466=1
S435_614=1
S436_171=1
S436_466=1
S436_614=1
S437_171=1
S437_466=1
S437_614=1
S438_466=1
S438_614=1
S439_171=1
S439_466=1
S439_614=1
S440_466=1
S440_614=1
S441_466=1
S442_466=1
S443_466=1
S444_171=1
S444_614=1
S445_171=1
S445_614=1
S446_171=1
S446_466=1
S446_614=1
S447_171=1
S447_466=1
S447_614=1
S448_171=1
S448_466=1
S448_614=1
S449_171=1
S449_466=1
S449_614=1
S450_171=1
S450_466=1
S450_614=1
S451_466=1
S451_614=1
S452_466=1
S452_614=1
S453_466=1
S454_466=1
S455_466=1
S456_171=1
S456_466=1
S456_614=1
S457_171=1
S457_466=1
S457_614=1
S457_687=1
S458_171=1
S458_466=1
S458_614=1
S459_171=1
S459_466=1
S459_614=1
S460_171=1
S460_466=1
S460_614=1
S461_171=1
S461_466=1
S461_614=1
S461_687=1
S462_171=1
S462_466=1
S462_614=1
S463_466=1
S463_614=1
S464_466=1
S464_614=1
S465_466=1
S466_466=1
S467_466=1
S468_171=1
S468_466=1
S468_614=1
S468_687=1
S469_171=1
S469_466=1
S469_614=1
S469_687=1
S470_171=1
S470_466=1
S470_614=1
S470_687=1
S471_171=1
S471_466=1
S471_614=1
S472_171=1
S472_466=1
S472_614=1
S472_687=1
S473_171=1
S473_466=1
S473_614=1
S473_687=1
S474_171=1
S474_466=1
S474_614=1
S474_687=1
S475_171=1
S475_429=1
S475_466=1
S475_614=1
S476_466=1
S477_466=1
S477_813=1
S478_466=1
S478_813=1
S479_466=1
S479_813=1
S480_171=1
S480_614=1
S480_687=1
S481_171=1
S481_614=1
S481_687=1
S482_171=1
S482_614=1
S482_687=1
S483_171=1
S483_466=1
S483_614=1
S483_687=1
S484_171=1
S484_466=1
S484_614=1
S484_687=1
S485_171=1
S485_466=1
S485_614=1
S485_687=1
S486_171=1
S486_466=1
S486_614=1
S486_687=1
S487_466=1
S487_813=1
S488_466=1
S488_813=1
S489_69=1
S489_466=1
S489_687=1
S489_813=1
S490_466=1
S490_813=1
S491_466=1
S492_466=1
S492_614=1
S492_687=1
S493_171=1
S493_466=1
S493_614=1
S493_687=1
S494_171=1
S494_614=1
S494_687=1
S495_171=1
S495_255=1
S495_466=1
S495_614=1
S495_687=1
S496_171=1
S496_255=1
S496_429=1
S496_466=1
S496_614=1
S496_687=1
S497_171=1
S497_255=1
S497_466=1
S497_614=1
S497_687=1
S498_171=1
S498_466=1
S498_614=1
S498_687=1
S498_813=1
S499_466=1
S499_687=1
S499_813=1
S500_69=1
S500_429=1
S500_466=1
S500_687=1
S500_813=1
S501_69=1
S501_429=1
S501_466=1
S501_813=1
S502_69=1
S502_429=1
S502_466=1
S502_813=1
S503_429=1
S503_466=1
S503_813=1
S504_466=1
S504_614=1
S504_687=1
S505_255=1
S505_614=1
S505_687=1
S506_171=1
S506_255=1
S506_466=1
S506_614=1
S506_687=1
S507_255=1
S507_614=1
S507_687=1
S508_171=1
S508_255=1
S508_429=1
S508_466=1
S508_614=1
S508_687=1
S509_255=1
S509_466=1
S509_614=1
S509_687=1
S509_813=1
S510_429=1
S510_466=1
S510_614=1
S510_687=1
S510_813=1
S511_429=1
S511_466=1
S511_813=1
S512_429=1
S512_466=1
S512_614=1
S512_813=1
S513_69=1
S513_429=1
S513_466=1
S513_687=1
S513_813=1
S514_69=1
S514_429=1
S514_466=1
S514_813=1
S515_429=1
S515_466=1
S515_813=1
S516_466=1
S516_614=1
S516_687=1
S517_255=1
S517_614=1
S517_687=1
S518_255=1
S518_466=1
S518_614=1
S518_687=1
S519_255=1
S519_466=1
S519_614=1
S519_687=1
S520_255=1
S520_466=1
S520_614=1
S520_687=1
S521_255=1
S521_429=1
S521_466=1
S521_687=1
S521_813=1
S522_255=1
S522_429=1
S522_466=1
S522_687=1
S522_813=1
S523_255=1
S523_429=1
S523_466=1
S523_687=1
S523_813=1
S524_429=1
S524_466=1
S524_687=1
S524_813=1
S525_429=1
S525_466=1
S525_813=1
S526_429=1
S526_466=1
S526_813=1
S527_429=1
S527_466=1
S527_813=1
S528_255=1
S528_614=1
S528_687=1
S529_255=1
S529_466=1
S529_614=1
S529_687=1
S530_255=1
S530_614=1
S530_687=1
S531_255=1
S531_614=1
S531_687=1
S532_255=1
S532_466=1
S532_614=1
S532_687=1
S533_255=1
S533_429=1
S533_466=1
S533_687=1
S533_813=1
S534_255=1
S534_429=1
S534_466=1
S534_614=1
S534_687=1
S534_813=1
S535_255=1
S535_429=1
S535_466=1
S535_614=1
S535_687=1
S535_813=1
S536_429=1
S536_466=1
S536_687=1
S536_813=1
S537_429=1
S537_466=1
S537_813=1
S538_429=1
S538_466=1
S538_813=1
S539_429=1
S539_466=1
S539_813=1
S540_255=1
S540_687=1
S541_255=1
S541_687=1
S542_255=1
S542_429=1
S542_687=1
S543_255=1
S543_466=1
S543_614=1
S543_687=1
S544_255=1
S544_429=1
S544_687=1
S545_255=1
S545_429=1
S545_466=1
S545_614=1
S545_687=1
S546_255=1
S546_429=1
S546_687=1
S547_255=1
S547_429=1
S547_466=1
S547_614=1
S547_687=1
S547_813=1
S548_429=1
S548_466=1
S548_687=1
S548_813=1
S549_429=1
S549_466=1
S549_687=1
S549_813=1
S550_429=1
S550_466=1
S550_813=1
S551_429=1
S551_466=1
S551_813=1
S552_255=1
S552_687=1
S553_255=1
S553_614=1
S553_687=1
S554_255=1
S554_687=1
S555_255=1
S555_429=1
S555_466=1
S555_614=1
S555_687=1
S556_255=1
S556_429=1
S556_687=1
S557_255=1
S557_429=1
S557_687=1
S558_255=1
S558_429=1
S558_466=1
S558_687=1
S558_813=1
S559_255=1
S559_429=1
S559_687=1
S559_813=1
S560_429=1
S560_466=1
S560_687=1
S560_813=1
S561_429=1
S561_687=1
S561_813=1
S562_429=1
S562_466=1
S562_813=1
S563_429=1
S563_466=1
S563_813=1
S564_687=1
S565_255=1
S565_429=1
S565_614=1
S565_687=1
S566_255=1
S566_687=1
S567_255=1
S567_429=1
S567_687=1
S568_255=1
S568_687=1
S569_255=1
S569_429=1
S569_687=1
S570_255=1
S570_429=1
S570_466=1
S570_687=1
S571_429=1
S571_466=1
S571_687=1
S572_429=1
S572_466=1
S572_687=1
S573_429=1
S573_466=1
S573_813=1
S574_429=1
S575_429=1
S575_466=1
S576_614=1
S577_614=1
S578_614=1
S579_171=1
S579_466=1
S579_614=1
S579_687=1
S580_466=1
S580_614=1
S581_466=1
S581_614=1
S582_466=1
S582_614=1
S582_687=1
S583_466=1
S583_614=1
S584_466=1
S584_614=1
S584_687=1
S585_466=1
S585_614=1
S586_466=1
S586_813=1
S587_466=1
S588_614=1
S588_687=1
S589_614=1
S590_614=1
S590_687=1
S591_171=1
S591_466=1
S591_614=1
S591_687=1
S592_171=1
S592_614=1
S592_813=1
S593_466=1
S593_614=1
S593_813=1
S594_466=1
S594_614=1
S595_466=1
S595_614=1
S595_813=1
S596_466=1
S596_614=1
S596_687=1
S596_813=1
S597_466=1
S597_614=1
S598_466=1
S598_813=1
S599_466=1
S600_614=1
S600_687=1
S601_614=1
S601_687=1
S602_171=1
S602_466=1
S602_614=1
S602_687=1
S603_171=1
S603_614=1
S603_687=1
S604_171=1
S604_614=1
S604_687=1
S605_171=1
S605_614=1
S605_687=1
S606_466=1
S606_614=1
S606_687=1
S606_813=1
S607_466=1
S607_614=1
S607_687=1
S607_813=1
S608_466=1
S608_614=1
S609_466=1
S609_614=1
S610_466=1
S610_614=1
S610_813=1
S611_466=1
S611_813=1
S612_614=1
S612_687=1
S613_614=1
S613_687=1
S614_466=1
S614_614=1
S614_687=1
S615_171=1
S615_614=1
S615_687=1
S616_171=1
S616_466=1
S616_614=1
S616_687=1
S617_466=1
S617_614=1
S617_687=1
S617_813=1
S618_466=1
S618_614=1
S618_687=1
S619_466=1
S619_614=1
S619_687=1
S619_813=1
S620_466=1
S620_614=1
S620_687=1
S620_813=1
S621_466=1
S621_614=1
S621_687=1
S621_813=1
S622_466=1
S622_687=1
S622_813=1
S623_466=1
S623_813=1
S624_614=1
S624_687=1
S625_614=1
S625_687=1
S626_466=1
S626_614=1
S626_687=1
S627_171=1
S627_614=1
S627_687=1
S627_813=1
S628_466=1
S628_614=1
S628_687=1
S628_813=1
S629_614=1
S629_687=1
S630_466=1
S630_614=1
S630_687=1
S630_813=1
S631_466=1
S631_614=1
S631_687=1
S631_813=1
S632_466=1
S632_614=1
S632_687=1
S632_813=1
S633_466=1
S633_614=1
S633_813=1
S634_466=1
S634_687=1
S634_813=1
S635_466=1
S635_614=1
S635_813=1
S636_614=1
S636_687=1
S637_614=1
S637_687=1
S637_813=1
S638_614=1
S638_687=1
S639_614=1
S639_687=1
S640_614=1
S640_687=1
S640_813=1
S641_466=1
S641_614=1
S641_687=1
S641_813=1
S642_466=1
S642_614=1
S642_687=1
S642_813=1
S643_466=1
S643_614=1
S643_687=1
S643_813=1
S644_466=1
S644_614=1
S644_687=1
S644_813=1
S645_466=1
S645_614=1
S645_687=1
S645_813=1
S646_466=1
S646_813=1
S647_466=1
S647_813=1
S648_614=1
S648_687=1
S649_614=1
S649_687=1
S649_813=1
S650_614=1
S650_687=1
S651_614=1
S651_687=1
S651_813=1
S652_466=1
S652_614=1
S652_687=1
S652_813=1
S653_614=1
S653_687=1
S653_813=1
S654_614=1
S654_687=1
S654_813=1
S655_466=1
S655_614=1
S655_687=1
S655_813=1
S656_466=1
S656_614=1
S656_687=1
S656_813=1
S657_466=1
S657_687=1
S657_813=1
S658_466=1
S658_687=1
S658_813=1
S659_466=1
S659_614=1
S659_687=1
S659_813=1
S660_614=1
S660_687=1
S661_614=1
S661_687=1
S662_614=1
S662_687=1
S662_813=1
S663_255=1
S663_614=1
S663_687=1
S663_813=1
S664_614=1
S664_687=1
S664_813=1
S665_614=1
S665_687=1
S665_813=1
S666_466=1
S666_614=1
S666_687=1
S666_813=1
S667_466=1
S667_614=1
S667_687=1
S667_813=1
S668_466=1
S668_614=1
S668_687=1
S668_813=1
S669_466=1
S669_614=1
S669_687=1
S669_813=1
S670_429=1
S670_614=1
S670_687=1
S670_813=1
S671_466=1
S671_813=1
S672_614=1
S672_687=1
S673_614=1
S673_687=1
S674_255=1
S674_614=1
S674_687=1
S675_255=1
S675_614=1
S675_687=1
S675_813=1
S676_614=1
S676_687=1
S677_614=1
S677_687=1
S677_813=1
S678_614=1
S678_687=1
S678_813=1
S679_614=1
S679_687=1
S679_813=1
S680_429=1
S680_466=1
S680_687=1
S680_813=1
S681_429=1
S681_466=1
S681_687=1
S681_813=1
S682_429=1
S682_466=1
S682_614=1
S682_687=1
S682_813=1
S683_429=1
S683_466=1
S683_687=1
S683_813=1
S684_614=1
S684_687=1
S685_614=1
S685_687=1
S686_255=1
S686_614=1
S686_687=1
S687_255=1
S687_614=1
S687_687=1
S688_255=1
S688_614=1
S688_687=1
S688_813=1
S689_255=1
S689_614=1
S689_687=1
S689_813=1
S690_429=1
S690_614=1
S690_687=1
S690_813=1
S691_429=1
S691_466=1
S691_614=1
S691_687=1
S691_813=1
S692_429=1
S692_687=1
S692_813=1
S693_429=1
S693_687=1
S693_813=1
S694_429=1
S694_687=1
S694_813=1
S695_429=1
S695_687=1
S695_813=1
S696_614=1
S696_687=1
S697_614=1
S697_687=1
S698_255=1
S698_614=1
S698_687=1
S699_255=1
S699_614=1
S699_687=1
S700_255=1
S700_614=1
S700_687=1
S700_813=1
S701_614=1
S701_687=1
S701_813=1
S702_429=1
S702_687=1
S702_813=1
S703_429=1
S703_687=1
S703_813=1
S704_429=1
S704_687=1
S704_813=1
S705_429=1
S705_687=1
S705_813=1
S706_429=1
S706_614=1
S706_687=1
S706_813=1
S707_429=1
S707_466=1
S707_687=1
S707_813=1
S708_687=1
S709_614=1
S709_687=1
S710_614=1
S710_687=1
S711_255=1
S711_614=1
S711_687=1
S711_813=1
S712_614=1
S712_687=1
S713_429=1
S713_614=1
S713_687=1
S713_813=1
S714_429=1
S714_687=1
S714_813=1
S715_429=1
S715_614=1
S715_687=1
S715_813=1
S716_429=1
S716_687=1
S716_813=1
S717_429=1
S717_687=1
S717_813=1
S718_429=1
S718_687=1
S718_813=1
S719_429=1
S719_687=1
S719_813=1
S720_614=1
S721_614=1
S722_614=1
S723_614=1
S723_813=1
S724_614=1
S725_614=1
S725_813=1
S726_614=1
S726_813=1
S727_813=1
S728_466=1
S728_813=1
S729_466=1
S729_813=1
S730_466=1
S730_813=1
S731_466=1
S731_813=1
S732_614=1
S733_614=1
S734_614=1
S734_813=1
S735_614=1
S736_614=1
S736_813=1
S737_614=1
S737_813=1
S738_614=1
S738_813=1
S739_466=1
S739_614=1
S739_813=1
S740_466=1
S740_813=1
S741_466=1
S741_813=1
S742_466=1
S742_813=1
S743_466=1
S743_813=1
S744_614=1
S745_614=1
S746_614=1
S746_813=1
S747_614=1
S747_813=1
S748_614=1
S748_813=1
S749_614=1
S749_813=1
S750_466=1
S750_614=1
S750_813=1
S751_466=1
S751_614=1
S751_813=1
S752_466=1
S752_813=1
S753_466=1
S753_614=1
S753_813=1
S754_466=1
S754_813=1
S755_466=1
S755_813=1
S756_614=1
S756_687=1
S757_614=1
S757_687=1
S757_813=1
S758_614=1
S758_687=1
S758_813=1
S759_614=1
S759_687=1
S759_813=1
S760_614=1
S760_813=1
S761_614=1
S761_687=1
S761_813=1
S762_466=1
S762_614=1
S762_687=1
S762_813=1
S763_466=1
S763_614=1
S763_813=1
S764_466=1
S764_614=1
S764_813=1
S765_466=1
S765_813=1
S766_466=1
S766_813=1
S767_466=1
S767_813=1
S768_614=1
S769_614=1
S769_687=1
S769_813=1
S770_614=1
S770_687=1
S770_813=1
S771_614=1
S771_687=1
S771_813=1
S772_614=1
S772_687=1
S772_813=1
S773_614=1
S773_813=1
S774_614=1
S774_813=1
S775_466=1
S775_614=1
S775_813=1
S776_466=1
S776_614=1
S776_687=1
S776_813=1
S777_466=1
S777_614=1
S777_813=1
S778_466=1
S778_813=1
S779_466=1
S779_813=1
S780_614=1
S780_687=1
S781_614=1
S781_687=1
S782_614=1
S782_687=1
S782_813=1
S783_614=1
S783_687=1
S783_813=1
S784_614=1
S784_687=1
S784_813=1
S785_614=1
S785_687=1
S785_813=1
S786_614=1
S786_687=1
S786_813=1
S787_687=1
S787_813=1
S788_466=1
S788_614=1
S788_687=1
S788_813=1
S789_466=1
S789_614=1
S789_687=1
S789_813=1
S790_466=1
S790_813=1
S791_466=1
S791_813=1
S792_614=1
S792_687=1
S793_614=1
S793_687=1
S793_813=1
S794_614=1
S794_687=1
S794_813=1
S795_614=1
S795_687=1
S795_813=1
S796_614=1
S796_687=1
S796_813=1
S797_614=1
S797_687=1
S797_813=1
S798_687=1
S798_813=1
S799_614=1
S799_687=1
S799_813=1
S800_614=1
S800_687=1
S800_813=1
S801_614=1
S801_813=1
S802_466=1
S802_813=1
S803_813=1
S804_614=1
S804_687=1
S805_614=1
S805_687=1
S805_813=1
S806_614=1
S806_687=1
S806_813=1
S807_614=1
S807_687=1
S807_813=1
S808_614=1
S808_687=1
S808_813=1
S809_614=1
S809_687=1
S809_813=1
S810_614=1
S810_687=1
S810_813=1
S811_614=1
S811_687=1
S811_813=1
S812_813=1
S813_687=1
S813_813=1
S814_813=1
S815_813=1
S816_614=1
S816_687=1
S816_813=1
S817_614=1
S817_687=1
S817_813=1
S818_687=1
S818_813=1
S819_614=1
S819_687=1
S819_813=1
S820_687=1
S820_813=1
S821_687=1
S821_813=1
S822_614=1
S822_687=1
S822_813=1
S823_687=1
S823_813=1
S824_687=1
S824_813=1
S825_687=1
S825_813=1
S826_813=1
S827_813=1
S828_687=1
S829_614=1
S829_687=1
S830_687=1
S830_813=1
S831_614=1
S831_687=1
S831_813=1
S832_687=1
S832_813=1
S833_687=1
S833_813=1
S834_687=1
S834_813=1
S835_687=1
S835_813=1
S836_813=1
S837_429=1
S837_687=1
S837_813=1
S838_813=1
S839_813=1
S840_687=1
S841_687=1
S842_687=1
S842_813=1
S843_687=1
S843_813=1
S844_614=1
S844_687=1
S844_813=1
S845_687=1
S845_813=1
S846_687=1
S846_813=1
S847_687=1
S847_813=1
S848_687=1
S848_813=1
S849_429=1
S849_813=1
S850_813=1
S851_813=1
S852_687=1
S853_687=1
S854_614=1
S854_687=1
S855_687=1
S855_813=1
S856_687=1
S856_813=1
S857_687=1
S857_813=1
S858_687=1
S858_813=1
S859_687=1
S859_813=1
S860_429=1
S860_813=1
S861_429=1
S861_687=1
S861_813=1
S862_429=1
S862_813=1
S863_687=1
S863_813=1
U0_171=1
U1_171=1
U2_171=1
U3_69=1
U3_171=1
U4_69=1
U5_69=1
U6_171=1
U7_69=1
U7_171=1
U8_69=1
U8_171=1
U9_171=1
U10_69=1
U11_69=1
U12_255=1
U13_69=1
U14_69=1
U14_171=1
U15_69=1
U16_69=1
U17_69=1
U18_255=1
U19_255=1
U20_69=1
U21_255=1
U22_69=1
U23_69=1
U24_255=1
U25_255=1
U26_255=1
U27_69=1
U28_69=1
U29_69=1
U30_255=1
U31_255=1
U32_255=1
U33_255=1
U34_429=1
U35_69=1
U36_171=1
U37_171=1
U38_171=1
U39_171=1
U40_466=1
U41_466=1
U42_171=1
U43_255=1
U44_69=1
U44_171=1
U45_69=1
U45_171=1
U46_466=1
U47_69=1
U48_255=1
U49_255=1
U50_255=1
U51_69=1
U52_69=1
U53_69=1
U54_255=1
U55_171=1
U56_255=1
U57_69=1
U58_429=1
U59_69=1
U60_255=1
U61_255=1
U62_255=1
U63_429=1
U64_429=1
U65_429=1
U66_255=1
U67_255=1
U68_429=1
U69_429=1
U70_429=1
U71_429=1
U72_171=1
U73_171=1
U74_171=1
U75_466=1
U76_466=1
U77_466=1
U78_171=1
U78_614=1
U79_614=1
U80_171=1
U81_466=1
U82_466=1
U83_466=1
U84_255=1
U85_255=1
U86_255=1
U87_429=1
U88_466=1
U89_429=1
U89_466=1
U90_255=1
U91_255=1
U92_255=1
U92_429=1
U93_429=1
U94_429=1
U95_429=1
U96_255=1
U97_255=1
U98_429=1
U99_429=1
U100_429=1
U101_429=1
U102_255=1
U103_255=1
U104_429=1
U105_429=1
U106_429=1
U107_429=1
U108_614=1
U109_466=1
U110_466=1
U111_466=1
U112_466=1
U113_466=1
U114_614=1
U115_614=1
U116_466=1
U117_466=1
U118_466=1
U119_466=1
U120_614=1
U121_614=1
U122_614=1
U122_687=1
U123_466=1
U124_466=1
U125_466=1
U126_687=1
U127_687=1
U128_687=1
U129_687=1
U130_813=1
U131_466=1
U132_687=1
U133_687=1
U134_687=1
U135_429=1
U136_429=1
U137_429=1
U137_466=1
U138_687=1
U139_687=1
U140_687=1
U141_429=1
U142_429=1
U143_429=1
U144_614=1
U145_614=1
U146_614=1
U147_466=1
U148_466=1
U149_466=1
U150_614=1
U151_614=1
U152_614=1
U152_687=1
U153_466=1
U154_466=1
U155_466=1
U156_614=1
U157_614=1
U158_614=1
U159_813=1
U160_813=1
U161_813=1
U162_614=1
U162_687=1
U163_614=1
U163_687=1
U164_813=1
U165_687=1
U166_813=1
U167_813=1
U168_687=1
U169_687=1
U170_614=1
U170_687=1
U171_687=1
U172_813=1
U173_813=1
U174_687=1
U175_687=1
U176_687=1
U177_687=1
U178_429=1
U178_687=1
U179_813=1
U180_614=1
U181_614=1
U182_614=1
U183_813=1
U184_813=1
U185_466=1
U186_614=1
U187_614=1
U188_614=1
U189_813=1
U190_813=1
U191_813=1
U192_614=1
U193_687=1
U194_614=1
U195_813=1
U196_813=1
U197_813=1
U198_687=1
U199_813=1
U200_813=1
U201_813=1
U202_813=1
U203_813=1
U204_687=1
U205_687=1
U206_813=1
U207_813=1
U208_813=1
U209_813=1
U210_687=1
U211_813=1
U212_813=1
U213_813=1
U214_813=1
U215_813=1

